{
    "english": {
        "search": "search",
        "about": "about us",
        "favorites": "favorites",
        "owner": "account",
        "name": "Name",
        "rating": "rating",
        "website": "Website",
        "phone_number": "Phone number",
        "address": "Address",
        "show_list": "show list",
        "is_favorite": "saved!",
        "make_favorite": "save",
        "call": "call",
        "share": "share",
		"login_to_rate": "Log in to leave your comment",
		"no_spaces": "Spaces are not allowed",
		"passwords_dont_match": "Passwords do not match",
		"required": "This field is required",
		"not_an_email": "Invalid email",
		"make_comment": "Tell us your opinon about this place",
		"your_opinion": "Your opinion",
		"submit": "Submit",
		"login_to_favorite": "Must be logged in to save locations",
		"search_here": "Search this area",
		"by_price": "Filter by price",
		"by_rating": "Filter by rating",
		"by_tags": "Filter by tag",
		"sort_by": "SORT BY",
		"location": "Location",
		"contact": "Contact",
		"description": "Description",
		"tags": "Tags",
		"select_tags": "Select up to 3 tags you want to associate this venue by",
		"optional": " (optional)",
		"price_capture": "Average price",
		"images": "Images",
		"add_image_urls": "Add the urls of your venue images",
		"empty_favorites1": "Start saving your favorites!",
		"empty_favorites2": "You can find them in the search page",
		"empty_search1": "Sorry, we couldn't find anything...",
		"empty_search2": "Try searching again with broather parameters",
		"empty_search1": "Sorry, we couldn't find anything...",
		"empty_owner1": "You own no locations :(",
		"empty_owner2": "Register one with the + button",
		"about_us1": "The Buena Comida® app is designed to be an interactive forum for locating and reviewing food outlets and to promote and elevate the culture of all food in México. All rights reserved",
		"about_us1": "The Buena Comida® app is designed to be an interactive forum for locating and reviewing food outlets and to promote and elevate the culture of all food in México. All rights reserved",
		"about_us2": "Leave us feedback at",
		"about_us3": "This app was made in Guadalajara, Jalisco by Rodolfo Torres Jaime",
		"about_us4": "For a free eBook on México and mexican food visit",
		"working1": "We're working on this page",
		"working2": "Go search for your next favorite venue!",
		"logout": "CERRAR SESIÓN",
		"go_somewhere": "Go somewhere",
		"": ""
    },
    "espanol": {
        "search": "búsqueda",
        "about": "nosotros",
        "favorites": "favoritos",
        "is_favorite": "guardado!",
        "make_favorite": "guardar",
        "owner": "perfil",
        "name": "Nombre",
        "rating": "Calificación",
        "website": "Sitio web",
        "phone_number": "Teléfono",
        "address": "Dirección",
        "show_list": "mostrar lista",
        "favorite": "favorito",
        "call": "llamar",
        "share": "compartir",
		"login_to_rate": "Inicia sesión para dejar tu comentario",
		"no_spaces": "No se permiten espacios",
		"passwords_dont_match": "Las contraseñas no coinciden",
		"not_an_email": "Correo no válido",
		"required": "Este campo es requerido",
		"make_comment": "Cuéntanos tu opinión de este lugar",
		"your_opinion": "Tu opinión",
		"submit": "Publicar",
		"login_to_favorite": "Inicia sesión para guardar favoritos",
		"search_here": "Busca ésta área",
		"by_price": "Filtrar por precio",
		"by_rating": "Filtrar por calificación",
		"by_tags": "Filtrar por tipo",
		"sort_by": "ORDENAR POR",
		"location": "Localización",
		"contact": "Contacto",
		"description": "Descripción",
		"tags": "Etiquetas",
		"select_tags": "Selecciona hasta 3 etiquetas con las que desees asociar el local",
		"optional": " (opcional)",
		"price_capture": "Precio promedio",
		"images": "Imágenes",
		"add_image_urls": "Agrega la url de las imágenes del local",
		"empty_favorites1": "¡Empieza a guardar tus favoritos!",
		"empty_favorites2": "Encuéntralos en la página de búsqueda",
		"empty_search1": "No pudimos encontrarlo...",
		"empty_search2": "Intenta otra búsqueda más amplia",
		"empty_owner1": "No has registrado ningún local :(",
		"empty_owner2": "Agrega uno con el botón de +",
		"about_us1": "La aplicación Buena Comida® está diseñada para ser un foro interactivo para encontrar restaurantes de todo tipo y elevar la cultura culinaria mexicana. Todos los derechos reservados.",
		"about_us2": "Deja tus opiniones en",
		"about_us3": "Esta aplicación fue realizada en Guadalajara por Rodolfo Torres Jaime",
		"about_us4": "Obtén de regalo un libro acerca de México y su cultura culinaria en:",
		"working1": "Estamos trabajando en esta sección",
		"working2": "¡Dirígete a la página de búsqueda para encontrar tu nuevo favorito!",
		"logout": "CERRAR SESIÓN",
		"go_somewhere": "Ir a algún lado",
		"": ""
    }
}
